Package b
Afferent couplings:
		Class TinyOne in package a depends on TinyTwo

Instability = 0.000
Abstractness = 0.000
Distance from main sequence = 0.707

Package a
Efferent couplings:
		Class TinyOne depends on TinyTwo in package b

Instability = 1.000
Abstractness = 0.000
Distance from main sequence = 0.000

